00000000000000010000000001000000
00000000000000100000000001000010
00000000000000100000000001000011
00000000001000010000000000000100
00000000001000100000000000000110
00000000001000100000000000000111
00000000101001000000000000100001
00000000001000100000000000100011
00000010111101110000000000100100
00000000010000010000000000100101
00000000100001010000000000100110
00000000001000100000000000100111
00000000001000100000000000101010
10000001000000000000000000000000
00000000000000000000000000000000
10000101100000000000000000000000
00000000000000000000000000000000
10001100111000000000000000000001
00000000000000000000000000000000
10010001000000000000000000000100
00000000000000000000000000000000
10010101000000000000000000000100
00000000000000000000000000000000
10011101000000000000000000000100
00000000000000000000000000000000
10100000001000000000000000001111
10100100001000000000000000001111
10101100001000000000000000001111
00100000001000000000000000000111
00110010111000000000000000010111
00110100001000000000000000000010
00111000100000000000000000000101
00111100000000000000000000001010
00101000001000000000000000000010
11111111111111111111111111111111
