00001000000000000000000000100011
00000000000000000000000000000000
00111100000000000000000000000000
00111100000000010000000000000000
00111100000000100000000000000000
00111100000000110000000000000000
00111100000001000000000000000000
00111100000001010000000000000000
00111100000001100000000000000000
00111100000001110000000000000000
00111100000010000000000000000000
00111100000010010000000000000000
00111100000010100000000000000000
00111100000010110000000000000000
00111100000011000000000000000000
00111100000011010000000000000000
00111100000011100000000000000000
00111100000011110000000000000000
00111100000100000000000000000000
00111100000100010000000000000000
00111100000100100000000000000000
00111100000100110000000000000000
00111100000101000000000000000000
00111100000101010000000000000000
00111100000101100000000000000000
00111100000101110000000000000000
00111100000110000000000000000000
00111100000110010000000000000000
00111100000110100000000000000000
00111100000110110000000000000000
00111100000111000000000000000000
00111100000111010000000000000000
00111100000111100000000000000000
00000011111000000000000000001000
00111100000111110000000000000000
00001100000000000000000000000010
00000000000000000000000000000000
10101100000000000000000000000000
10101100000000000000000000000100
10101100000000000000000000001000
10101100000000000000000000001100
10101100000000000000000000010000
00100000001000010000000000010000
10101100001000000000000000000100
00100000001000010000000000000100
10101100001000000000000000000000
00100000001000010000000000000100
10101100001000000000000000000000
00100000001000010000000000000100
10101100001000000000000000000000
00100000001000010000000000000100
10101100001000000000000000000000
00100000001000010000000000000100
10101100001000000000000000000000
00000000010000100001000000100111
10100000000000100000000000000100
10100100000000100000000000001000
10101100000000100000000000001100
10000000000000010000000000000100
10010000000000100000000000000100
10000100000000110000000000001000
10010100000001010000000000001000
10001100000001100000000000001100
00000000110000000011100000100001
00000000111000000011100000100001
00001100000000000000000000000010
00000000000000000000000000000000
00100000011000110000000000001010
00100000001000010000000000000001
00000000001000000001000000100001
00100000001000000000000000000000
00100000010000010000000000000000
00100000100001000000000000000001
00010100011001001111111111111011
00100000010000000000000000000000
00111100000000010000000000000000
10101100001000000000000000000000
11111111111111111111111111111111
