00100000000001000000000000000000
00100000000000100000000000000100
00100000000000110000000000000100
00010000011000100000000000000010
00100000000001000000000000000100
00001000000000000000000000001110
00100000000001000000000000000011
00010100100000110000000000000010
00100000000001000000000000000010
00100000000001000000000000000001
00100000000001010000000000010000
00000000101000000000000000001000
00100000000001000000000000000010
00100000000001000000000000000000
00001100000000000000000000001111
00100000000001100000000000101010
11111111111111111111111111111111
