00100000000001000000000000000000
00100000000000010000000000000000
00100000011000110000000000000111
00100000001000010000000000000001
00000000001000000001000000100001
00100000001000000000000000000000
00100000010000010000000000000000
00100000100001000000000000000001
00010100011001001111111111111011
00100000010000000000000000000000
00111100000000010000000000000000
10101100001000000000000000000000
11111111111111111111111111111111
