00100000000000101111111111111111
10101100000000100000000000000000
10100000000000100000000000000100
10100100000000100000000000001000
10001100000000110000000000000000
10001100000001000000000000000100
10001100000001010000000000001000
10000100000001100000000000000000
10010100000001110000000000000000
10000000000010000000000000000000
10010000000010010000000000000000
10000100000010100000000000000010
10010100000010110000000000000010
10000000000011000000000000000001
10010000000011010000000000000001
10000000000011100000000000000010
10010000000011110000000000000010
10000000000100000000000000000011
10010000000100010000000000000011
