00100000000000100000000011111111
00000000000000100001100001000010
00000000000000110010011001000000
00000000000001000010100001000010
00000000000001000011000001000011
00100000000001110000000000000001
00100000000010000000000000011001
00000000111000100100100000000110
00000001000010010101000000000100
00000000111010100101100000000110
00000000111010100110000000000111
11111111111111111111111111111111
